Bayesian Linear Regression With Truncated Normal Distributions
…
1.2 Simulate data

Below we simulate a dataset with two groups with a difference in mean of 50.

set.seed(1238)
df <- data_frame(p1 = rbinom(1000, 1, 0.5),
              d = 50,
              data = rnorm(1000, mean = 500 + p1 * d , sd=80))
df

## # A tibble: 1,000 x 3
##       p1     d  data
##    <int> <dbl> <dbl>
##  1     1    50  512.
##  2     1    50  595.
##  3     0    50  433.
##  4     0    50  455.
##  5     0    50  518.
##  6     1    50  653.
##  7     1    50  554.
##  8     0    50  409.
##  9     0    50  545.
## 10     1    50  646.
## # ... with 990 more rows
…
1.3 Truncate the data

Now truncate the data by getting rid of data above 600

trunc_df <- df %>% 
  filter(data < 600)
trunc_df

## # A tibble: 772 x 3
##       p1     d  data
##    <int> <dbl> <dbl>
##  1     1    50  512.
##  2     1    50  595.
##  3     0    50  433.
##  4     0    50  455.
##  5     0    50  518.
##  6     1    50  554.
##  7     0    50  409.
##  8     0    50  545.
##  9     0    50  522.
## 10     0    50  508.
## # ... with 762 more rows
…
